-4  0.341573  0.564629  0.352956  0.601379 
1  0.341573  0.564629  0.352956  0.601379 
-2  0.341573  0.564629  0.352956  0.601379 
10  0.341573  0.564629  0.352956  0.601379 
-5  0.341573  0.564629  0.352956  0.601379 
-8  0.356664  0.536362  0.18243  0.65879 
-1  0.356664  0.536362  0.18243  0.65879 
7  0.356664  0.536362  0.18243  0.65879 
-7  0.356664  0.536362  0.18243  0.65879 
1  0.356664  0.536362  0.18243  0.65879 
-7  0.322407  0.722844  0.129558  0.463421 
-8  0.322407  0.722844  0.129558  0.463421 
3  0.322407  0.722844  0.129558  0.463421 
6  0.322407  0.722844  0.129558  0.463421 
7  0.322407  0.722844  0.129558  0.463421 
-6  0.209051  0.423569  0.191295  0.264757 
-21  0.209051  0.423569  0.191295  0.264757 
-8  0.209051  0.423569  0.191295  0.264757 
-10  0.209051  0.423569  0.191295  0.264757 
-3  0.209051  0.423569  0.191295  0.264757 
1  0.244648  0.611066  0.224341  0.274852 
-12  0.244648  0.611066  0.224341  0.274852 
0  0.244648  0.611066  0.224341  0.274852 
7  0.244648  0.611066  0.224341  0.274852 
13  0.244648  0.611066  0.224341  0.274852 
2  0.183123  0.58676  0.164002  0.167618 
15  0.183123  0.58676  0.164002  0.167618 
1  0.183123  0.58676  0.164002  0.167618 
-11  0.183123  0.58676  0.164002  0.167618 
15  0.231631  0.609813  0.144914  0.117778 
-1  0.231631  0.609813  0.144914  0.117778 
6  0.231631  0.609813  0.144914  0.117778 
-4  0.231631  0.609813  0.144914  0.117778 
-5  0.231631  0.609813  0.144914  0.117778 
-6  0.208095  0.738556  0.145537  0.07944 
-6  0.208095  0.738556  0.145537  0.07944 
2  0.208095  0.738556  0.145537  0.07944 
3  0.208095  0.738556  0.145537  0.07944 
-7  0.208095  0.738556  0.145537  0.07944 
-14  0.108864  0.937752  0.124742  0.102658 
-9  0.108864  0.937752  0.124742  0.102658 
-5  0.108864  0.937752  0.124742  0.102658 
-14  0.108864  0.937752  0.124742  0.102658 
-5  0.108864  0.937752  0.124742  0.102658 
-15  0.06553  1.167429  0.084798  0.13642 
10  0.06553  1.167429  0.084798  0.13642 
-5  0.06553  1.167429  0.084798  0.13642 
2  0.06553  1.167429  0.084798  0.13642 
-9  0.06553  1.167429  0.084798  0.13642 
-1  0.082692  1.577676  0.120034  0.077779 
-6  0.082692  1.577676  0.120034  0.077779 
-19  0.082692  1.577676  0.120034  0.077779 
-5  0.082692  1.577676  0.120034  0.077779 
-3  0.082692  1.577676  0.120034  0.077779 
2  0.050749  0.867527  0.081434  0.111288 
-13  0.050749  0.867527  0.081434  0.111288 
2  0.050749  0.867527  0.081434  0.111288 
-3  0.050749  0.867527  0.081434  0.111288 
-10  0.050749  0.867527  0.081434  0.111288 
-1  0.047172  1.012452  0.103669  0.075022 
-10  0.047172  1.012452  0.103669  0.075022 
2  0.047172  1.012452  0.103669  0.075022 
-4  0.047172  1.012452  0.103669  0.075022 
2  0.047172  1.012452  0.103669  0.075022 
-9  0.03815  0.661389  0.110948  0.063708 
18  0.03815  0.661389  0.110948  0.063708 
-3  0.03815  0.661389  0.110948  0.063708 
-10  0.03815  0.661389  0.110948  0.063708 
-3  0.03815  0.661389  0.110948  0.063708 
13  0.057105  0.690467  0.16205  0.060752 
-21  0.057105  0.690467  0.16205  0.060752 
-25  0.057105  0.690467  0.16205  0.060752 
-14  0.057105  0.690467  0.16205  0.060752 
-11  0.057105  0.690467  0.16205  0.060752 
8  0.072247  0.642774  0.098987  0.072624 
-1  0.072247  0.642774  0.098987  0.072624 
7  0.072247  0.642774  0.098987  0.072624 
4  0.072247  0.642774  0.098987  0.072624 
-5  0.072247  0.642774  0.098987  0.072624 
-16  0.092755  0.558029  0.082425  0.072709 
-6  0.092755  0.558029  0.082425  0.072709 
7  0.092755  0.558029  0.082425  0.072709 
-11  0.092755  0.558029  0.082425  0.072709 
15  0.092755  0.558029  0.082425  0.072709 
-8  0.052484  0.725166  0.100039  0.053952 
10  0.052484  0.725166  0.100039  0.053952 
3  0.052484  0.725166  0.100039  0.053952 
-2  0.052484  0.725166  0.100039  0.053952 
-11  0.052484  0.725166  0.100039  0.053952 
-1  0.071968  0.892524  0.104127  0.043974 
13  0.071968  0.892524  0.104127  0.043974 
4  0.071968  0.892524  0.104127  0.043974 
-1  0.071968  0.892524  0.104127  0.043974 
-5  0.071968  0.892524  0.104127  0.043974 
2  0.102996  0.785547  0.089811  0.043113 
-17  0.102996  0.785547  0.089811  0.043113 
1  0.102996  0.785547  0.089811  0.043113 
-2  0.102996  0.785547  0.089811  0.043113 
-14  0.102996  0.785547  0.089811  0.043113 
-11  0.068013  0.721181  0.084154  0.057012 
10  0.068013  0.721181  0.084154  0.057012 
5  0.068013  0.721181  0.084154  0.057012 
-5  0.068013  0.721181  0.084154  0.057012 
13  0.068013  0.721181  0.084154  0.057012 
-20  0.034738  0.679694  0.12001  0.082851 
-3  0.034738  0.679694  0.12001  0.082851 
1  0.034738  0.679694  0.12001  0.082851 
-23  0.034738  0.679694  0.12001  0.082851 
-18  0.034738  0.679694  0.12001  0.082851 
-9  0.037332  0.471498  0.071255  0.106557 
-14  0.037332  0.471498  0.071255  0.106557 
-7  0.037332  0.471498  0.071255  0.106557 
-14  0.037332  0.471498  0.071255  0.106557 
-27  0.037332  0.471498  0.071255  0.106557 
-12  0.054218  0.640031  0.064688  0.159105 
-4  0.054218  0.640031  0.064688  0.159105 
1  0.054218  0.640031  0.064688  0.159105 
-19  0.054218  0.640031  0.064688  0.159105 
-22  0.054218  0.640031  0.064688  0.159105 
-3  0.072855  0.906788  0.043955  0.114456 
-5  0.072855  0.906788  0.043955  0.114456 
-5  0.072855  0.906788  0.043955  0.114456 
-20  0.072855  0.906788  0.043955  0.114456 
-14  0.072855  0.906788  0.043955  0.114456 
5  0.069469  1.094532  0.032355  0.105749 
-1  0.069469  1.094532  0.032355  0.105749 
-15  0.069469  1.094532  0.032355  0.105749 
-11  0.069469  1.094532  0.032355  0.105749 
-4  0.069469  1.094532  0.032355  0.105749 
-4  0.098336  0.888433  0.028861  0.073753 
7  0.098336  0.888433  0.028861  0.073753 
-6  0.098336  0.888433  0.028861  0.073753 
0  0.098336  0.888433  0.028861  0.073753 
-17  0.098336  0.888433  0.028861  0.073753 
-15  0.061549  0.848469  0.01615  0.053253 
-7  0.061549  0.848469  0.01615  0.053253 
-8  0.061549  0.848469  0.01615  0.053253 
-16  0.061549  0.848469  0.01615  0.053253 
8  0.061549  0.848469  0.01615  0.053253 
-15  0.071767  1.074805  0.008625  0.034646 
-12  0.071767  1.074805  0.008625  0.034646 
-16  0.071767  1.074805  0.008625  0.034646 
-20  0.071767  1.074805  0.008625  0.034646 
2  0.071767  1.074805  0.008625  0.034646 
-15  0.068816  1.289847  0.008878  0.049634 
-9  0.068816  1.289847  0.008878  0.049634 
-21  0.068816  1.289847  0.008878  0.049634 
-30  0.068816  1.289847  0.008878  0.049634 
-1  0.068816  1.289847  0.008878  0.049634 
-12  0.053391  1.244099  0.010784  0.073785 
4  0.053391  1.244099  0.010784  0.073785 
-6  0.053391  1.244099  0.010784  0.073785 
-14  0.053391  1.244099  0.010784  0.073785 
-10  0.053391  1.244099  0.010784  0.073785 
0  0.079537  1.054322  0.01196  0.073813 
6  0.079537  1.054322  0.01196  0.073813 
-13  0.079537  1.054322  0.01196  0.073813 
-4  0.079537  1.054322  0.01196  0.073813 
-13  0.079537  1.054322  0.01196  0.073813 
8  0.098307  0.814374  0.014668  0.058053 
-17  0.098307  0.814374  0.014668  0.058053 
4  0.098307  0.814374  0.014668  0.058053 
-12  0.098307  0.814374  0.014668  0.058053 
-10  0.098307  0.814374  0.014668  0.058053 
-7  0.075228  0.821377  0.019169  0.050917 
0  0.075228  0.821377  0.019169  0.050917 
5  0.075228  0.821377  0.019169  0.050917 
-2  0.075228  0.821377  0.019169  0.050917 
-20  0.075228  0.821377  0.019169  0.050917 
12  0.110842  0.986229  0.024667  0.070794 
2  0.110842  0.986229  0.024667  0.070794 
-13  0.110842  0.986229  0.024667  0.070794 
-7  0.110842  0.986229  0.024667  0.070794 
11  0.110842  0.986229  0.024667  0.070794 
10  0.116063  0.735499  0.013313  0.060187 
-8  0.116063  0.735499  0.013313  0.060187 
-6  0.116063  0.735499  0.013313  0.060187 
-3  0.116063  0.735499  0.013313  0.060187 
-7  0.116063  0.735499  0.013313  0.060187 
-1  0.145052  0.963354  0.01944  0.062608 
3  0.145052  0.963354  0.01944  0.062608 
-5  0.145052  0.963354  0.01944  0.062608 
-7  0.145052  0.963354  0.01944  0.062608 
-13  0.145052  0.963354  0.01944  0.062608 
-2  0.217485  1.154038  0.023542  0.05018 
-9  0.217485  1.154038  0.023542  0.05018 
7  0.217485  1.154038  0.023542  0.05018 
-6  0.217485  1.154038  0.023542  0.05018 
0  0.217485  1.154038  0.023542  0.05018 
-4  0.152696  0.935168  0.024769  0.048875 
-9  0.152696  0.935168  0.024769  0.048875 
8  0.152696  0.935168  0.024769  0.048875 
-4  0.152696  0.935168  0.024769  0.048875 
-1  0.152696  0.935168  0.024769  0.048875 
1  0.086816  1.254308  0.022937  0.04166 
-13  0.086816  1.254308  0.022937  0.04166 
-10  0.086816  1.254308  0.022937  0.04166 
1  0.086816  1.254308  0.022937  0.04166 
-6  0.086816  1.254308  0.022937  0.04166 
-5  0.125141  1.325204  0.030383  0.045472 
-5  0.125141  1.325204  0.030383  0.045472 
6  0.125141  1.325204  0.030383  0.045472 
-14  0.125141  1.325204  0.030383  0.045472 
3  0.125141  1.325204  0.030383  0.045472 
-3  0.117547  1.892881  0.017762  0.034118 
5  0.117547  1.892881  0.017762  0.034118 
-5  0.117547  1.892881  0.017762  0.034118 
-2  0.117547  1.892881  0.017762  0.034118 
-16  0.117547  1.892881  0.017762  0.034118 
-1  0.132011  1.952661  0.014583  0.017797 
-16  0.132011  1.952661  0.014583  0.017797 
-7  0.132011  1.952661  0.014583  0.017797 
-4  0.132011  1.952661  0.014583  0.017797 
-2  0.132011  1.952661  0.014583  0.017797 
6  0.076526  1.97188  0.0142  0.020468 
-11  0.076526  1.97188  0.0142  0.020468 
-21  0.076526  1.97188  0.0142  0.020468 
-24  0.076526  1.97188  0.0142  0.020468 
-3  0.076526  1.97188  0.0142  0.020468 
-1  0.095957  1.16683  0.00803  0.024552 
-7  0.095957  1.16683  0.00803  0.024552 
-8  0.095957  1.16683  0.00803  0.024552 
-11  0.095957  1.16683  0.00803  0.024552 
-7  0.095957  1.16683  0.00803  0.024552 
-1  0.111723  1.156739  0.007228  0.018471 
0  0.111723  1.156739  0.007228  0.018471 
2  0.111723  1.156739  0.007228  0.018471 
-9  0.111723  1.156739  0.007228  0.018471 
-2  0.111723  1.156739  0.007228  0.018471 
-18  0.116054  1.077356  0.009205  0.027567 
-5  0.116054  1.077356  0.009205  0.027567 
-14  0.116054  1.077356  0.009205  0.027567 
2  0.116054  1.077356  0.009205  0.027567 
16  0.116054  1.077356  0.009205  0.027567 
-5  0.121356  1.54602  0.010221  0.039647 
-3  0.121356  1.54602  0.010221  0.039647 
-6  0.121356  1.54602  0.010221  0.039647 
-5  0.121356  1.54602  0.010221  0.039647 
-22  0.121356  1.54602  0.010221  0.039647 
-23  0.092053  1.524931  0.007199  0.047826 
-15  0.092053  1.524931  0.007199  0.047826 
-4  0.092053  1.524931  0.007199  0.047826 
-6  0.092053  1.524931  0.007199  0.047826 
2  0.092053  1.524931  0.007199  0.047826 
-11  0.121744  1.14798  0.010779  0.044094 
15  0.121744  1.14798  0.010779  0.044094 
0  0.121744  1.14798  0.010779  0.044094 
6  0.121744  1.14798  0.010779  0.044094 
-11  0.121744  1.14798  0.010779  0.044094 
-6  0.087119  1.270146  0.007043  0.023764 
-14  0.087119  1.270146  0.007043  0.023764 
-29  0.087119  1.270146  0.007043  0.023764 
-20  0.087119  1.270146  0.007043  0.023764 
-15  0.087119  1.270146  0.007043  0.023764 
-16  0.077282  1.871723  0.006668  0.033712 
-10  0.077282  1.871723  0.006668  0.033712 
-21  0.077282  1.871723  0.006668  0.033712 
-1  0.077282  1.871723  0.006668  0.033712 
-10  0.077282  1.871723  0.006668  0.033712 
-12  0.078246  2.500259  0.004649  0.017374 
-13  0.078246  2.500259  0.004649  0.017374 
-4  0.078246  2.500259  0.004649  0.017374 
-19  0.078246  2.500259  0.004649  0.017374 
-11  0.078246  2.500259  0.004649  0.017374 
8  0.065072  2.132769  0.003586  0.019299 
-15  0.065072  2.132769  0.003586  0.019299 
-7  0.065072  2.132769  0.003586  0.019299 
-10  0.065072  2.132769  0.003586  0.019299 
-14  0.065072  2.132769  0.003586  0.019299 
-6  0.073287  1.883234  0.005003  0.022931 
-3  0.073287  1.883234  0.005003  0.022931 
-8  0.073287  1.883234  0.005003  0.022931 
8  0.073287  1.883234  0.005003  0.022931 
1  0.073287  1.883234  0.005003  0.022931 
-11  0.055758  2.428332  0.004195  0.026985 
-10  0.055758  2.428332  0.004195  0.026985 
-16  0.055758  2.428332  0.004195  0.026985 
-20  0.055758  2.428332  0.004195  0.026985 
-7  0.055758  2.428332  0.004195  0.026985 
-6  0.053561  2.890069  0.003843  0.026881 
-21  0.053561  2.890069  0.003843  0.026881 
6  0.053561  2.890069  0.003843  0.026881 
-14  0.053561  2.890069  0.003843  0.026881 
-6  0.053561  2.890069  0.003843  0.026881 
-6  0.034781  1.727737  0.002036  0.021041 
-4  0.034781  1.727737  0.002036  0.021041 
-10  0.034781  1.727737  0.002036  0.021041 
-13  0.034781  1.727737  0.002036  0.021041 
-6  0.034781  1.727737  0.002036  0.021041 
1  0.048925  2.109972  0.002179  0.013409 
-20  0.048925  2.109972  0.002179  0.013409 
-4  0.048925  2.109972  0.002179  0.013409 
3  0.048925  2.109972  0.002179  0.013409 
-32  0.048925  2.109972  0.002179  0.013409 
0  0.039236  1.270798  0.003184  0.007635 
-21  0.039236  1.270798  0.003184  0.007635 
-12  0.039236  1.270798  0.003184  0.007635 
-8  0.039236  1.270798  0.003184  0.007635 
-16  0.039236  1.270798  0.003184  0.007635 
-5  0.053953  0.812427  0.003764  0.005411 
-25  0.053953  0.812427  0.003764  0.005411 
-5  0.053953  0.812427  0.003764  0.005411 
-12  0.053953  0.812427  0.003764  0.005411 
-12  0.053953  0.812427  0.003764  0.005411 
-4  0.035245  0.580691  0.003785  0.004901 
-7  0.035245  0.580691  0.003785  0.004901 
-9  0.035245  0.580691  0.003785  0.004901 
-8  0.035245  0.580691  0.003785  0.004901 
1  0.035245  0.580691  0.003785  0.004901 
-21  0.019296  0.493788  0.002884  0.004926 
-11  0.019296  0.493788  0.002884  0.004926 
-10  0.019296  0.493788  0.002884  0.004926 
-13  0.019296  0.493788  0.002884  0.004926 
-8  0.019296  0.493788  0.002884  0.004926 
-19  0.028736  0.63556  0.00327  0.006759 
-22  0.028736  0.63556  0.00327  0.006759 
-16  0.028736  0.63556  0.00327  0.006759 
8  0.028736  0.63556  0.00327  0.006759 
1  0.028736  0.63556  0.00327  0.006759 
-21  0.020944  0.486834  0.004218  0.006814 
12  0.020944  0.486834  0.004218  0.006814 
-9  0.020944  0.486834  0.004218  0.006814 
5  0.020944  0.486834  0.004218  0.006814 
-11  0.020944  0.486834  0.004218  0.006814 
-4  0.019731  0.262247  0.003853  0.010208 
-10  0.019731  0.262247  0.003853  0.010208 
-17  0.019731  0.262247  0.003853  0.010208 
-4  0.019731  0.262247  0.003853  0.010208 
-23  0.019731  0.262247  0.003853  0.010208 
-3  0.02487  0.17774  0.003679  0.007064 
3  0.02487  0.17774  0.003679  0.007064 
-2  0.02487  0.17774  0.003679  0.007064 
-12  0.02487  0.17774  0.003679  0.007064 
-6  0.02487  0.17774  0.003679  0.007064 
-3  0.019486  0.224519  0.003495  0.008343 
-1  0.019486  0.224519  0.003495  0.008343 
-18  0.019486  0.224519  0.003495  0.008343 
-5  0.019486  0.224519  0.003495  0.008343 
-3  0.019486  0.224519  0.003495  0.008343 
-8  0.023772  0.140994  0.00298  0.010151 
5  0.023772  0.140994  0.00298  0.010151 
12  0.023772  0.140994  0.00298  0.010151 
7  0.023772  0.140994  0.00298  0.010151 
1  0.023772  0.140994  0.00298  0.010151 
-8  0.027105  0.136894  0.0025  0.011851 
10  0.027105  0.136894  0.0025  0.011851 
3  0.027105  0.136894  0.0025  0.011851 
-1  0.027105  0.136894  0.0025  0.011851 
-10  0.027105  0.136894  0.0025  0.011851 
-20  0.017596  0.199029  0.002291  0.011551 
-6  0.017596  0.199029  0.002291  0.011551 
-10  0.017596  0.199029  0.002291  0.011551 
-3  0.017596  0.199029  0.002291  0.011551 
-14  0.017596  0.199029  0.002291  0.011551 
10  0.023388  0.134124  0.002371  0.009231 
13  0.023388  0.134124  0.002371  0.009231 
6  0.023388  0.134124  0.002371  0.009231 
-3  0.023388  0.134124  0.002371  0.009231 
-7  0.023388  0.134124  0.002371  0.009231 
-4  0.017406  0.140504  0.002626  0.012134 
3  0.017406  0.140504  0.002626  0.012134 
5  0.017406  0.140504  0.002626  0.012134 
-3  0.017406  0.140504  0.002626  0.012134 
-9  0.017406  0.140504  0.002626  0.012134 
-3  0.025658  0.0983  0.003611  0.01704 
12  0.025658  0.0983  0.003611  0.01704 
-14  0.025658  0.0983  0.003611  0.01704 
4  0.025658  0.0983  0.003611  0.01704 
3  0.025658  0.0983  0.003611  0.01704 
-1  0.034486  0.138753  0.004924  0.011858 
6  0.034486  0.138753  0.004924  0.011858 
1  0.034486  0.138753  0.004924  0.011858 
11  0.034486  0.138753  0.004924  0.011858 
10  0.034486  0.138753  0.004924  0.011858 
7  0.030294  0.09598  0.004685  0.010034 
4  0.030294  0.09598  0.004685  0.010034 
1  0.030294  0.09598  0.004685  0.010034 
9  0.030294  0.09598  0.004685  0.010034 
10  0.030294  0.09598  0.004685  0.010034 
10  0.030928  0.115718  0.004564  0.005722 
-11  0.030928  0.115718  0.004564  0.005722 
-10  0.030928  0.115718  0.004564  0.005722 
9  0.030928  0.115718  0.004564  0.005722 
2  0.030928  0.115718  0.004564  0.005722 
10  0.045117  0.119714  0.005089  0.005409 
1  0.045117  0.119714  0.005089  0.005409 
5  0.045117  0.119714  0.005089  0.005409 
10  0.045117  0.119714  0.005089  0.005409 
3  0.045117  0.119714  0.005089  0.005409 
-2  0.064018  0.098238  0.005352  0.004185 
7  0.064018  0.098238  0.005352  0.004185 
2  0.064018  0.098238  0.005352  0.004185 
10  0.064018  0.098238  0.005352  0.004185 
-10  0.064018  0.098238  0.005352  0.004185 
6  0.049014  0.049377  0.003204  0.005771 
2  0.049014  0.049377  0.003204  0.005771 
5  0.049014  0.049377  0.003204  0.005771 
11  0.049014  0.049377  0.003204  0.005771 
6  0.049014  0.049377  0.003204  0.005771 
-8  0.058519  0.059202  0.001992  0.005517 
8  0.058519  0.059202  0.001992  0.005517 
7  0.058519  0.059202  0.001992  0.005517 
11  0.058519  0.059202  0.001992  0.005517 
17  0.058519  0.059202  0.001992  0.005517 
-2  0.063589  0.04777  0.001393  0.005427 
-8  0.063589  0.04777  0.001393  0.005427 
2  0.063589  0.04777  0.001393  0.005427 
-10  0.063589  0.04777  0.001393  0.005427 
7  0.063589  0.04777  0.001393  0.005427 
-6  0.06252  0.031889  0.002076  0.008099 
12  0.06252  0.031889  0.002076  0.008099 
-4  0.06252  0.031889  0.002076  0.008099 
5  0.06252  0.031889  0.002076  0.008099 
-3  0.06252  0.031889  0.002076  0.008099 
-15  0.057167  0.024563  0.001837  0.005795 
-6  0.057167  0.024563  0.001837  0.005795 
3  0.057167  0.024563  0.001837  0.005795 
1  0.057167  0.024563  0.001837  0.005795 
18  0.057167  0.024563  0.001837  0.005795 
11  0.046168  0.020301  0.001909  0.006842 
-4  0.046168  0.020301  0.001909  0.006842 
8  0.046168  0.020301  0.001909  0.006842 
7  0.046168  0.020301  0.001909  0.006842 
-1  0.046168  0.020301  0.001909  0.006842 
-8  0.041932  0.029264  0.002226  0.003949 
-4  0.041932  0.029264  0.002226  0.003949 
-5  0.041932  0.029264  0.002226  0.003949 
3  0.041932  0.029264  0.002226  0.003949 
7  0.041932  0.029264  0.002226  0.003949 
14  0.02192  0.018937  0.002383  0.003384 
15  0.02192  0.018937  0.002383  0.003384 
0  0.02192  0.018937  0.002383  0.003384 
5  0.02192  0.018937  0.002383  0.003384 
5  0.02192  0.018937  0.002383  0.003384 
8  0.015519  0.022982  0.002101  0.00356 
-4  0.015519  0.022982  0.002101  0.00356 
-4  0.015519  0.022982  0.002101  0.00356 
3  0.015519  0.022982  0.002101  0.00356 
5  0.015519  0.022982  0.002101  0.00356 
0  0.021571  0.029806  0.002289  0.002035 
7  0.021571  0.029806  0.002289  0.002035 
7  0.021571  0.029806  0.002289  0.002035 
6  0.021571  0.029806  0.002289  0.002035 
6  0.021571  0.029806  0.002289  0.002035 
15  0.026514  0.031712  0.002297  0.001486 
-6  0.026514  0.031712  0.002297  0.001486 
3  0.026514  0.031712  0.002297  0.001486 
7  0.026514  0.031712  0.002297  0.001486 
-13  0.026514  0.031712  0.002297  0.001486 
-6  0.021988  0.046398  0.001393  0.002047 
4  0.021988  0.046398  0.001393  0.002047 
-7  0.021988  0.046398  0.001393  0.002047 
8  0.021988  0.046398  0.001393  0.002047 
5  0.021988  0.046398  0.001393  0.002047 
2  0.014121  0.057646  0.00128  0.003045 
-4  0.014121  0.057646  0.00128  0.003045 
4  0.014121  0.057646  0.00128  0.003045 
13  0.014121  0.057646  0.00128  0.003045 
0  0.014121  0.057646  0.00128  0.003045 
-1  0.021155  0.064923  0.000939  0.001558 
6  0.021155  0.064923  0.000939  0.001558 
9  0.021155  0.064923  0.000939  0.001558 
-16  0.021155  0.064923  0.000939  0.001558 
4  0.021155  0.064923  0.000939  0.001558 
1  0.028108  0.069446  0.001122  0.00186 
9  0.028108  0.069446  0.001122  0.00186 
8  0.028108  0.069446  0.001122  0.00186 
-1  0.028108  0.069446  0.001122  0.00186 
0  0.028108  0.069446  0.001122  0.00186 
-7  0.032614  0.03483  0.001061  0.001947 
-14  0.032614  0.03483  0.001061  0.001947 
0  0.032614  0.03483  0.001061  0.001947 
7  0.032614  0.03483  0.001061  0.001947 
1  0.032614  0.03483  0.001061  0.001947 
-6  0.021105  0.050237  0.000592  0.001877 
1  0.021105  0.050237  0.000592  0.001877 
-4  0.021105  0.050237  0.000592  0.001877 
4  0.021105  0.050237  0.000592  0.001877 
-12  0.021105  0.050237  0.000592  0.001877 
1  0.024834  0.032493  0.000488  0.002418 
8  0.024834  0.032493  0.000488  0.002418 
7  0.024834  0.032493  0.000488  0.002418 
-2  0.024834  0.032493  0.000488  0.002418 
-10  0.024834  0.032493  0.000488  0.002418 
0  0.026869  0.027854  0.000445  0.00154 
13  0.026869  0.027854  0.000445  0.00154 
5  0.026869  0.027854  0.000445  0.00154 
4  0.026869  0.027854  0.000445  0.00154 
6  0.026869  0.027854  0.000445  0.00154 
7  0.029192  0.020223  0.000587  0.001895 
18  0.029192  0.020223  0.000587  0.001895 
1  0.029192  0.020223  0.000587  0.001895 
3  0.029192  0.020223  0.000587  0.001895 
7  0.029192  0.020223  0.000587  0.001895 
21  0.015877  0.019319  0.000818  0.001148 
11  0.015877  0.019319  0.000818  0.001148 
6  0.015877  0.019319  0.000818  0.001148 
5  0.015877  0.019319  0.000818  0.001148 
-2  0.015877  0.019319  0.000818  0.001148 
-11  0.019492  0.027746  0.001186  0.000756 
2  0.019492  0.027746  0.001186  0.000756 
0  0.019492  0.027746  0.001186  0.000756 
3  0.019492  0.027746  0.001186  0.000756 
-1  0.019492  0.027746  0.001186  0.000756 
-5  0.024015  0.029191  0.001438  0.00072 
-2  0.024015  0.029191  0.001438  0.00072 
6  0.024015  0.029191  0.001438  0.00072 
1  0.024015  0.029191  0.001438  0.00072 
0  0.024015  0.029191  0.001438  0.00072 
-1  0.035365  0.017276  0.000784  0.000719 
8  0.035365  0.017276  0.000784  0.000719 
0  0.035365  0.017276  0.000784  0.000719 
14  0.035365  0.017276  0.000784  0.000719 
10  0.035365  0.017276  0.000784  0.000719 
-9  0.034312  0.012725  0.000892  0.000446 
-10  0.034312  0.012725  0.000892  0.000446 
8  0.034312  0.012725  0.000892  0.000446 
1  0.034312  0.012725  0.000892  0.000446 
3  0.034312  0.012725  0.000892  0.000446 
1  0.022779  0.013256  0.001105  0.00039 
5  0.022779  0.013256  0.001105  0.00039 
21  0.022779  0.013256  0.001105  0.00039 
-6  0.022779  0.013256  0.001105  0.00039 
20  0.022779  0.013256  0.001105  0.00039 
-1  0.032334  0.008892  0.001409  0.000245 
6  0.032334  0.008892  0.001409  0.000245 
7  0.032334  0.008892  0.001409  0.000245 
-8  0.032334  0.008892  0.001409  0.000245 
6  0.032334  0.008892  0.001409  0.000245 
3  0.032592  0.011359  0.001937  0.000205 
-10  0.032592  0.011359  0.001937  0.000205 
6  0.032592  0.011359  0.001937  0.000205 
5  0.032592  0.011359  0.001937  0.000205 
-11  0.032592  0.011359  0.001937  0.000205 
-8  0.024629  0.016077  0.002866  0.000187 
6  0.024629  0.016077  0.002866  0.000187 
12  0.024629  0.016077  0.002866  0.000187 
6  0.024629  0.016077  0.002866  0.000187 
-3  0.024629  0.016077  0.002866  0.000187 
0  0.030902  0.011269  0.002857  9.7e-05 
-1  0.030902  0.011269  0.002857  9.7e-05 
9  0.030902  0.011269  0.002857  9.7e-05 
15  0.030902  0.011269  0.002857  9.7e-05 
12  0.030902  0.011269  0.002857  9.7e-05 
5  0.032844  0.014168  0.002294  8.7e-05 
15  0.032844  0.014168  0.002294  8.7e-05 
9  0.032844  0.014168  0.002294  8.7e-05 
-4  0.032844  0.014168  0.002294  8.7e-05 
3  0.032844  0.014168  0.002294  8.7e-05 
1  0.029266  0.007527  0.003171  8.3e-05 
22  0.029266  0.007527  0.003171  8.3e-05 
4  0.029266  0.007527  0.003171  8.3e-05 
-2  0.029266  0.007527  0.003171  8.3e-05 
11  0.029266  0.007527  0.003171  8.3e-05 
5  0.020384  0.007793  0.004475  8.9e-05 
1  0.020384  0.007793  0.004475  8.9e-05 
12  0.020384  0.007793  0.004475  8.9e-05 
1  0.020384  0.007793  0.004475  8.9e-05 
1  0.020384  0.007793  0.004475  8.9e-05 
-5  0.018254  0.005204  0.002785  0.000111 
17  0.018254  0.005204  0.002785  0.000111 
-1  0.018254  0.005204  0.002785  0.000111 
-3  0.018254  0.005204  0.002785  0.000111 
7  0.018254  0.005204  0.002785  0.000111 
9  0.022702  0.003321  0.003172  0.000129 
6  0.022702  0.003321  0.003172  0.000129 
11  0.022702  0.003321  0.003172  0.000129 
13  0.022702  0.003321  0.003172  0.000129 
13  0.022702  0.003321  0.003172  0.000129 
6  0.024029  0.004866  0.001636  0.000131 
11  0.024029  0.004866  0.001636  0.000131 
9  0.024029  0.004866  0.001636  0.000131 
5  0.024029  0.004866  0.001636  0.000131 
16  0.024029  0.004866  0.001636  0.000131 
3  0.012089  0.004295  0.00123  0.000152 
2  0.012089  0.004295  0.00123  0.000152 
2  0.012089  0.004295  0.00123  0.000152 
-7  0.012089  0.004295  0.00123  0.000152 
12  0.012089  0.004295  0.00123  0.000152 
7  0.014009  0.002333  0.000857  0.000162 
-2  0.014009  0.002333  0.000857  0.000162 
1  0.014009  0.002333  0.000857  0.000162 
3  0.014009  0.002333  0.000857  0.000162 
2  0.014009  0.002333  0.000857  0.000162 
10  0.019882  0.002314  0.000764  0.000131 
7  0.019882  0.002314  0.000764  0.000131 
-2  0.019882  0.002314  0.000764  0.000131 
13  0.019882  0.002314  0.000764  0.000131 
26  0.019882  0.002314  0.000764  0.000131 
15  0.023165  0.003445  0.001089  7.9e-05 
9  0.023165  0.003445  0.001089  7.9e-05 
29  0.023165  0.003445  0.001089  7.9e-05 
3  0.023165  0.003445  0.001089  7.9e-05 
-2  0.023165  0.003445  0.001089  7.9e-05 
1  0.016293  0.002075  0.000923  4e-05 
21  0.016293  0.002075  0.000923  4e-05 
-7  0.016293  0.002075  0.000923  4e-05 
8  0.016293  0.002075  0.000923  4e-05 
7  0.016293  0.002075  0.000923  4e-05 
-5  0.010467  0.001135  0.001138  5.5e-05 
-3  0.010467  0.001135  0.001138  5.5e-05 
4  0.010467  0.001135  0.001138  5.5e-05 
6  0.010467  0.001135  0.001138  5.5e-05 
8  0.010467  0.001135  0.001138  5.5e-05 
1  0.009154  0.000853  0.001319  7.6e-05 
9  0.009154  0.000853  0.001319  7.6e-05 
2  0.009154  0.000853  0.001319  7.6e-05 
12  0.009154  0.000853  0.001319  7.6e-05 
15  0.009154  0.000853  0.001319  7.6e-05 
-8  0.006514  0.001112  0.001524  5e-05 
15  0.006514  0.001112  0.001524  5e-05 
12  0.006514  0.001112  0.001524  5e-05 
9  0.006514  0.001112  0.001524  5e-05 
1  0.006514  0.001112  0.001524  5e-05 
3  0.005355  0.001062  0.001391  4.6e-05 
13  0.005355  0.001062  0.001391  4.6e-05 
16  0.005355  0.001062  0.001391  4.6e-05 
21  0.005355  0.001062  0.001391  4.6e-05 
13  0.005355  0.001062  0.001391  4.6e-05 
2  0.006068  0.001584  0.002005  5.9e-05 
5  0.006068  0.001584  0.002005  5.9e-05 
13  0.006068  0.001584  0.002005  5.9e-05 
-2  0.006068  0.001584  0.002005  5.9e-05 
3  0.006068  0.001584  0.002005  5.9e-05 
-3  0.00713  0.000874  0.001806  5.9e-05 
4  0.00713  0.000874  0.001806  5.9e-05 
12  0.00713  0.000874  0.001806  5.9e-05 
13  0.00713  0.000874  0.001806  5.9e-05 
2  0.00713  0.000874  0.001806  5.9e-05 
-8  0.003738  0.000945  0.001792  6.2e-05 
8  0.003738  0.000945  0.001792  6.2e-05 
5  0.003738  0.000945  0.001792  6.2e-05 
-1  0.003738  0.000945  0.001792  6.2e-05 
1  0.003738  0.000945  0.001792  6.2e-05 
9  0.002976  0.000851  0.001653  7.1e-05 
-7  0.002976  0.000851  0.001653  7.1e-05 
11  0.002976  0.000851  0.001653  7.1e-05 
-3  0.002976  0.000851  0.001653  7.1e-05 
-1  0.002976  0.000851  0.001653  7.1e-05 
7  0.002942  0.000841  0.001712  5.2e-05 
-9  0.002942  0.000841  0.001712  5.2e-05 
11  0.002942  0.000841  0.001712  5.2e-05 
1  0.002942  0.000841  0.001712  5.2e-05 
7  0.002942  0.000841  0.001712  5.2e-05 
8  0.003558  0.000459  0.001415  5.3e-05 
-4  0.003558  0.000459  0.001415  5.3e-05 
-7  0.003558  0.000459  0.001415  5.3e-05 
-2  0.003558  0.000459  0.001415  5.3e-05 
3  0.003558  0.000459  0.001415  5.3e-05 
13  0.004284  0.000268  0.001592  3.1e-05 
2  0.004284  0.000268  0.001592  3.1e-05 
29  0.004284  0.000268  0.001592  3.1e-05 
6  0.004284  0.000268  0.001592  3.1e-05 
4  0.004284  0.000268  0.001592  3.1e-05 
9  0.002311  0.000305  0.001247  2e-05 
-4  0.002311  0.000305  0.001247  2e-05 
13  0.002311  0.000305  0.001247  2e-05 
-15  0.002311  0.000305  0.001247  2e-05 
8  0.002311  0.000305  0.001247  2e-05 
8  0.002765  0.00034  0.001637  2.7e-05 
22  0.002765  0.00034  0.001637  2.7e-05 
6  0.002765  0.00034  0.001637  2.7e-05 
-1  0.002765  0.00034  0.001637  2.7e-05 
1  0.002765  0.00034  0.001637  2.7e-05 
10  0.002391  0.000417  0.001933  1.4e-05 
-2  0.002391  0.000417  0.001933  1.4e-05 
-4  0.002391  0.000417  0.001933  1.4e-05 
6  0.002391  0.000417  0.001933  1.4e-05 
-3  0.002391  0.000417  0.001933  1.4e-05 
-6  0.002164  0.0004  0.001421  1.3e-05 
5  0.002164  0.0004  0.001421  1.3e-05 
6  0.002164  0.0004  0.001421  1.3e-05 
10  0.002164  0.0004  0.001421  1.3e-05 
-2  0.002164  0.0004  0.001421  1.3e-05 
8  0.001986  0.000251  0.002092  1.4e-05 
-18  0.001986  0.000251  0.002092  1.4e-05 
-10  0.001986  0.000251  0.002092  1.4e-05 
6  0.001986  0.000251  0.002092  1.4e-05 
9  0.001986  0.000251  0.002092  1.4e-05 
-6  0.002405  0.00027  0.002882  1.9e-05 
-23  0.002405  0.00027  0.002882  1.9e-05 
-14  0.002405  0.00027  0.002882  1.9e-05 
-10  0.002405  0.00027  0.002882  1.9e-05 
3  0.002405  0.00027  0.002882  1.9e-05 
-2  0.002341  0.00019  0.002085  2.5e-05 
-13  0.002341  0.00019  0.002085  2.5e-05 
-6  0.002341  0.00019  0.002085  2.5e-05 
-5  0.002341  0.00019  0.002085  2.5e-05 
-17  0.002341  0.00019  0.002085  2.5e-05 
-9  0.003033  0.00017  0.001269  3.5e-05 
10  0.003033  0.00017  0.001269  3.5e-05 
5  0.003033  0.00017  0.001269  3.5e-05 
-3  0.003033  0.00017  0.001269  3.5e-05 
7  0.003033  0.00017  0.001269  3.5e-05 
1  0.001766  0.000117  0.001481  2.8e-05 
-1  0.001766  0.000117  0.001481  2.8e-05 
10  0.001766  0.000117  0.001481  2.8e-05 
-3  0.001766  0.000117  0.001481  2.8e-05 
9  0.001766  0.000117  0.001481  2.8e-05 
5  0.001863  0.000147  0.002027  3.6e-05 
-7  0.001863  0.000147  0.002027  3.6e-05 
-11  0.001863  0.000147  0.002027  3.6e-05 
2  0.001863  0.000147  0.002027  3.6e-05 
-4  0.001863  0.000147  0.002027  3.6e-05 
-13  0.001733  0.000126  0.001604  3.1e-05 
-4  0.001733  0.000126  0.001604  3.1e-05 
-9  0.001733  0.000126  0.001604  3.1e-05 
19  0.001733  0.000126  0.001604  3.1e-05 
-6  0.001733  0.000126  0.001604  3.1e-05 
0  0.001942  6.8e-05  0.001545  4.4e-05 
2  0.001942  6.8e-05  0.001545  4.4e-05 
-3  0.001942  6.8e-05  0.001545  4.4e-05 
-2  0.001942  6.8e-05  0.001545  4.4e-05 
9  0.001942  6.8e-05  0.001545  4.4e-05 
4  0.002241  5.2e-05  0.001795  4.3e-05 
-2  0.002241  5.2e-05  0.001795  4.3e-05 
-8  0.002241  5.2e-05  0.001795  4.3e-05 
2  0.002241  5.2e-05  0.001795  4.3e-05 
-4  0.002241  5.2e-05  0.001795  4.3e-05 
4  0.002913  6e-05  0.001075  4.3e-05 
3  0.002913  6e-05  0.001075  4.3e-05 
1  0.002913  6e-05  0.001075  4.3e-05 
0  0.002913  6e-05  0.001075  4.3e-05 
1  0.002913  6e-05  0.001075  4.3e-05 
-4  0.003849  4e-05  0.001568  3.2e-05 
16  0.003849  4e-05  0.001568  3.2e-05 
13  0.003849  4e-05  0.001568  3.2e-05 
3  0.003849  4e-05  0.001568  3.2e-05 
2  0.003849  4e-05  0.001568  3.2e-05 
-6  0.003965  2.6e-05  0.001585  2.9e-05 
8  0.003965  2.6e-05  0.001585  2.9e-05 
7  0.003965  2.6e-05  0.001585  2.9e-05 
10  0.003965  2.6e-05  0.001585  2.9e-05 
2  0.003965  2.6e-05  0.001585  2.9e-05 
2  0.002167  2.6e-05  0.001694  1.5e-05 
-8  0.002167  2.6e-05  0.001694  1.5e-05 
-7  0.002167  2.6e-05  0.001694  1.5e-05 
15  0.002167  2.6e-05  0.001694  1.5e-05 
-8  0.002167  2.6e-05  0.001694  1.5e-05 
-4  0.002411  3.2e-05  0.001689  1.1e-05 
6  0.002411  3.2e-05  0.001689  1.1e-05 
4  0.002411  3.2e-05  0.001689  1.1e-05 
-7  0.002411  3.2e-05  0.001689  1.1e-05 
-2  0.002411  3.2e-05  0.001689  1.1e-05 
2  0.001618  3.1e-05  0.001283  6e-06 
-1  0.001618  3.1e-05  0.001283  6e-06 
11  0.001618  3.1e-05  0.001283  6e-06 
5  0.001618  3.1e-05  0.001283  6e-06 
